<svg xmlns="http://www.w3.org/2000/svg" width="480" height="199" class="">
    <defs>
        <style/>
    </defs>
    <style>@keyframes animation-gauge{0%{stroke-dasharray:0 329}}@keyframes animation-rainbow{0%,to{color:#7f00ff;fill:#7f00ff}14%{color:#a933ff;fill:#a933ff}29%{color:#007fff;fill:#007fff}43%{color:#00ff7f;fill:#00ff7f}57%{color:#ff0;fill:#ff0}71%{color:#ff7f00;fill:#ff7f00}86%{color:red;fill:red}}svg{font-family:-apple-system,BlinkMacSystemFont,Segoe UI,Helvetica,Arial,sans-serif,Apple Color Emoji,Segoe UI Emoji;color:#777}h2,h3{margin:8px 0 2px;padding:0;color:#0366d6;font-weight:400}h2 svg,h3 svg{fill:currentColor}h2{font-size:16px}h3,svg{font-size:14px}section&gt;.field{margin-left:5px;margin-right:5px}.field{display:flex;align-items:center;margin-bottom:2px;white-space:nowrap}.field svg{margin:0 8px;fill:#959da5;flex-shrink:0}.row{display:flex;flex-wrap:wrap}.row section{flex:1 1 0}.calendar.field{margin:4px 0 4px 7px}.calendar .day{outline:1px solid rgba(27,31,35,.04);outline-offset:-1px}.chartist .ct-post{fill:rgba(127,127,127,.8)!important;color:rgba(127,127,127,.8)!important;font-size:9px;text-anchor:middle}svg.calendar{margin-left:13px;margin-top:4px}:root{--color-calendar-graph-day-bg:#ebedf0;--color-calendar-graph-day-border:rgba(27,31,35,0.06);--color-calendar-graph-day-L1-bg:#9be9a8;--color-calendar-graph-day-L2-bg:#40c463;--color-calendar-graph-day-L3-bg:#30a14e;--color-calendar-graph-day-L4-bg:#216e39;--color-calendar-halloween-graph-day-L1-bg:#ffee4a;--color-calendar-halloween-graph-day-L2-bg:#ffc501;--color-calendar-halloween-graph-day-L3-bg:#fe9600;--color-calendar-halloween-graph-day-L4-bg:#03001c;--color-calendar-graph-day-L4-border:rgba(27,31,35,0.06);--color-calendar-graph-day-L3-border:rgba(27,31,35,0.06);--color-calendar-graph-day-L2-border:rgba(27,31,35,0.06);--color-calendar-graph-day-L1-border:rgba(27,31,35,0.06)}#metrics-end{width:100%}</style>
    <style/>
    <foreignObject x="0" y="0" width="100%" height="100%">
        <div xmlns="http://www.w3.org/1999/xhtml" xmlns:xlink="http://www.w3.org/1999/xlink" class="items-wrapper">
            <section>
                <h2 class="field">
                    <svg xmlns="http://www.w3.org/2000/svg" viewBox="0 0 16 16" width="16" height="16">
                        <path fill-rule="evenodd" d="M4.75 0a.75.75 0 01.75.75V2h5V.75a.75.75 0 011.5 0V2h1.25c.966 0 1.75.784 1.75 1.75v10.5A1.75 1.75 0 0113.25 16H2.75A1.75 1.75 0 011 14.25V3.75C1 2.784 1.784 2 2.75 2H4V.75A.75.75 0 014.75 0zm0 3.5h8.5a.25.25 0 01.25.25V6h-11V3.75a.25.25 0 01.25-.25h2zm-2.25 4v6.75c0 .138.112.25.25.25h10.5a.25.25 0 00.25-.25V7.5h-11z"/>
                    </svg>
                    Contributions calendar
                </h2>
                <div class="row">
                    <section>
                    </section>
                    <section>
                        <h3 class="field">
                            <svg xmlns="http://www.w3.org/2000/svg" viewBox="0 0 16 16" width="16" height="16">
                                <path fill-rule="evenodd" d="M7.75 14A1.75 1.75 0 016 12.25v-8.5C6 2.784 6.784 2 7.75 2h6.5c.966 0 1.75.784 1.75 1.75v8.5A1.75 1.75 0 0114.25 14h-6.5zm-.25-1.75c0 .138.112.25.25.25h6.5a.25.25 0 00.25-.25v-8.5a.25.25 0 00-.25-.25h-6.5a.25.25 0 00-.25.25v8.5zM4.9 3.508a.75.75 0 01-.274 1.025.25.25 0 00-.126.217v6.5a.25.25 0 00.126.217.75.75 0 01-.752 1.298A1.75 1.75 0 013 11.25v-6.5c0-.649.353-1.214.874-1.516a.75.75 0 011.025.274zM1.625 5.533a.75.75 0 10-.752-1.299A1.75 1.75 0 000 5.75v4.5c0 .649.353 1.214.874 1.515a.75.75 0 10.752-1.298.25.25 0 01-.126-.217v-4.5a.25.25 0 01.126-.217z"/>
                            </svg>
                            Commits streaks
                        </h3>
                        <div class="field">
                            <svg xmlns="http://www.w3.org/2000/svg" viewBox="0 0 16 16" width="16" height="16">
                                <path d="M8.5.75a.75.75 0 00-1.5 0v5.19L4.391 3.33a.75.75 0 10-1.06 1.061L5.939 7H.75a.75.75 0 000 1.5h5.19l-2.61 2.609a.75.75 0 101.061 1.06L7 9.561v5.189a.75.75 0 001.5 0V9.56l2.609 2.61a.75.75 0 101.06-1.061L9.561 8.5h5.189a.75.75 0 000-1.5H9.56l2.61-2.609a.75.75 0 00-1.061-1.06L8.5 5.939V.75z"/>
                            </svg>
                            Best streak 13 days
                        </div>
                        <h3 class="field">
                            <svg xmlns="http://www.w3.org/2000/svg" viewBox="0 0 16 16" width="16" height="16">
                                <path fill-rule="evenodd" d="M10.5 7.75a2.5 2.5 0 11-5 0 2.5 2.5 0 015 0zm1.43.75a4.002 4.002 0 01-7.86 0H.75a.75.75 0 110-1.5h3.32a4.001 4.001 0 017.86 0h3.32a.75.75 0 110 1.5h-3.32z"/>
                            </svg>
                            Commits per day
                        </h3>
                        <div class="field">
                            <svg xmlns="http://www.w3.org/2000/svg" viewBox="0 0 16 16" width="16" height="16">
                                <path d="M7.823 1.677L4.927 4.573A.25.25 0 005.104 5H7.25v3.236a.75.75 0 101.5 0V5h2.146a.25.25 0 00.177-.427L8.177 1.677a.25.25 0 00-.354 0zM13.75 11a.75.75 0 000 1.5h.5a.75.75 0 000-1.5h-.5zm-3.75.75a.75.75 0 01.75-.75h.5a.75.75 0 010 1.5h-.5a.75.75 0 01-.75-.75zM7.75 11a.75.75 0 000 1.5h.5a.75.75 0 000-1.5h-.5zM4 11.75a.75.75 0 01.75-.75h.5a.75.75 0 010 1.5h-.5a.75.75 0 01-.75-.75zM1.75 11a.75.75 0 000 1.5h.5a.75.75 0 000-1.5h-.5z"/>
                            </svg>
                            Highest in a day at 43
                        </div>
                        <div class="field">
                            <svg xmlns="http://www.w3.org/2000/svg" viewBox="0 0 16 16" width="16" height="16">
                                <path d="M10.896 2H8.75V.75a.75.75 0 00-1.5 0V2H5.104a.25.25 0 00-.177.427l2.896 2.896a.25.25 0 00.354 0l2.896-2.896A.25.25 0 0010.896 2zM8.75 15.25a.75.75 0 01-1.5 0V14H5.104a.25.25 0 01-.177-.427l2.896-2.896a.25.25 0 01.354 0l2.896 2.896a.25.25 0 01-.177.427H8.75v1.25zm-6.5-6.5a.75.75 0 000-1.5h-.5a.75.75 0 000 1.5h.5zM6 8a.75.75 0 01-.75.75h-.5a.75.75 0 010-1.5h.5A.75.75 0 016 8zm2.25.75a.75.75 0 000-1.5h-.5a.75.75 0 000 1.5h.5zM12 8a.75.75 0 01-.75.75h-.5a.75.75 0 010-1.5h.5A.75.75 0 0112 8zm2.25.75a.75.75 0 000-1.5h-.5a.75.75 0 000 1.5h.5z"/>
                            </svg>
                            Average per day at ~3.80
                        </div>
                    </section>
                </div>
                <svg version="1.1" xmlns="http://www.w3.org/2000/svg" style="margin-top: -130px;" viewBox="0,0 480,170">
                    <filter id="brightness1">
                        <feComponentTransfer>
                            <feFuncR type="linear" slope="0.6"/>
                            <feFuncG type="linear" slope="0.6"/>
                            <feFuncB type="linear" slope="0.6"/>
                        </feComponentTransfer>
                    </filter>
                    <filter id="brightness2">
                        <feComponentTransfer>
                            <feFuncR type="linear" slope="0.19999999999999996"/>
                            <feFuncG type="linear" slope="0.19999999999999996"/>
                            <feFuncB type="linear" slope="0.19999999999999996"/>
                        </feComponentTransfer>
                    </filter>
                    <g transform="scale(4) translate(12, 0)">
                        <g transform="translate(0, 0)">
                            <g transform="translate(0, 6)">
                                <path fill="#ebedf0" d="M1.7,2 0,1 1.7,0 3.4,1 z"/>
                                <path fill="#ebedf0" filter="url(#brightness1)" d="M0,1 1.7,2 1.7,2 0,1 z"/>
                                <path fill="#ebedf0" filter="url(#brightness2)" d="M1.7,2 3.4,1 3.4,1 1.7,2 z"/>
                            </g>
                            <g transform="translate(-1.7, 6.162790697674419)">
                                <path fill="#30a14e" d="M1.7,2 0,1 1.7,0 3.4,1 z"/>
                                <path fill="#30a14e" filter="url(#brightness1)" d="M0,1 1.7,2 1.7,2.837209302325581 0,1.8372093023255813 z"/>
                                <path fill="#30a14e" filter="url(#brightness2)" d="M1.7,2 3.4,1 3.4,1.8372093023255813 1.7,2.837209302325581 z"/>
                            </g>
                            <g transform="translate(-3.4, 8)">
                                <path fill="#ebedf0" d="M1.7,2 0,1 1.7,0 3.4,1 z"/>
                                <path fill="#ebedf0" filter="url(#brightness1)" d="M0,1 1.7,2 1.7,2 0,1 z"/>
                                <path fill="#ebedf0" filter="url(#brightness2)" d="M1.7,2 3.4,1 3.4,1 1.7,2 z"/>
                            </g>
                            <g transform="translate(-5.1, 8.30232558139535)">
                                <path fill="#30a14e" d="M1.7,2 0,1 1.7,0 3.4,1 z"/>
                                <path fill="#30a14e" filter="url(#brightness1)" d="M0,1 1.7,2 1.7,2.697674418604651 0,1.697674418604651 z"/>
                                <path fill="#30a14e" filter="url(#brightness2)" d="M1.7,2 3.4,1 3.4,1.697674418604651 1.7,2.697674418604651 z"/>
                            </g>
                            <g transform="translate(-6.8, 9.86046511627907)">
                                <path fill="#9be9a8" d="M1.7,2 0,1 1.7,0 3.4,1 z"/>
                                <path fill="#9be9a8" filter="url(#brightness1)" d="M0,1 1.7,2 1.7,2.13953488372093 0,1.1395348837209303 z"/>
                                <path fill="#9be9a8" filter="url(#brightness2)" d="M1.7,2 3.4,1 3.4,1.1395348837209303 1.7,2.13953488372093 z"/>
                            </g>
                            <g transform="translate(-8.5, 9.883720930232558)">
                                <path fill="#216e39" d="M1.7,2 0,1 1.7,0 3.4,1 z"/>
                                <path fill="#216e39" filter="url(#brightness1)" d="M0,1 1.7,2 1.7,3.116279069767442 0,2.116279069767442 z"/>
                                <path fill="#216e39" filter="url(#brightness2)" d="M1.7,2 3.4,1 3.4,2.116279069767442 1.7,3.116279069767442 z"/>
                            </g>
                            <g transform="translate(-10.2, 12)">
                                <path fill="#ebedf0" d="M1.7,2 0,1 1.7,0 3.4,1 z"/>
                                <path fill="#ebedf0" filter="url(#brightness1)" d="M0,1 1.7,2 1.7,2 0,1 z"/>
                                <path fill="#ebedf0" filter="url(#brightness2)" d="M1.7,2 3.4,1 3.4,1 1.7,2 z"/>
                            </g>
                        </g>
                        <g transform="translate(1.7, 1)">
                            <g transform="translate(0, 5.8604651162790695)">
                                <path fill="#9be9a8" d="M1.7,2 0,1 1.7,0 3.4,1 z"/>
                                <path fill="#9be9a8" filter="url(#brightness1)" d="M0,1 1.7,2 1.7,2.13953488372093 0,1.1395348837209303 z"/>
                                <path fill="#9be9a8" filter="url(#brightness2)" d="M1.7,2 3.4,1 3.4,1.1395348837209303 1.7,2.13953488372093 z"/>
                            </g>
                            <g transform="translate(-1.7, 7)">
                                <path fill="#ebedf0" d="M1.7,2 0,1 1.7,0 3.4,1 z"/>
                                <path fill="#ebedf0" filter="url(#brightness1)" d="M0,1 1.7,2 1.7,2 0,1 z"/>
                                <path fill="#ebedf0" filter="url(#brightness2)" d="M1.7,2 3.4,1 3.4,1 1.7,2 z"/>
                            </g>
                            <g transform="translate(-3.4, 7.44186046511628)">
                                <path fill="#40c463" d="M1.7,2 0,1 1.7,0 3.4,1 z"/>
                                <path fill="#40c463" filter="url(#brightness1)" d="M0,1 1.7,2 1.7,2.558139534883721 0,1.558139534883721 z"/>
                                <path fill="#40c463" filter="url(#brightness2)" d="M1.7,2 3.4,1 3.4,1.558139534883721 1.7,2.558139534883721 z"/>
                            </g>
                            <g transform="translate(-5.1, 8.720930232558139)">
                                <path fill="#9be9a8" d="M1.7,2 0,1 1.7,0 3.4,1 z"/>
                                <path fill="#9be9a8" filter="url(#brightness1)" d="M0,1 1.7,2 1.7,2.2790697674418605 0,1.2790697674418605 z"/>
                                <path fill="#9be9a8" filter="url(#brightness2)" d="M1.7,2 3.4,1 3.4,1.2790697674418605 1.7,2.2790697674418605 z"/>
                            </g>
                            <g transform="translate(-6.8, 9.30232558139535)">
                                <path fill="#30a14e" d="M1.7,2 0,1 1.7,0 3.4,1 z"/>
                                <path fill="#30a14e" filter="url(#brightness1)" d="M0,1 1.7,2 1.7,2.697674418604651 0,1.697674418604651 z"/>
                                <path fill="#30a14e" filter="url(#brightness2)" d="M1.7,2 3.4,1 3.4,1.697674418604651 1.7,2.697674418604651 z"/>
                            </g>
                            <g transform="translate(-8.5, 9.883720930232558)">
                                <path fill="#216e39" d="M1.7,2 0,1 1.7,0 3.4,1 z"/>
                                <path fill="#216e39" filter="url(#brightness1)" d="M0,1 1.7,2 1.7,3.116279069767442 0,2.116279069767442 z"/>
                                <path fill="#216e39" filter="url(#brightness2)" d="M1.7,2 3.4,1 3.4,2.116279069767442 1.7,3.116279069767442 z"/>
                            </g>
                            <g transform="translate(-10.2, 12)">
                                <path fill="#ebedf0" d="M1.7,2 0,1 1.7,0 3.4,1 z"/>
                                <path fill="#ebedf0" filter="url(#brightness1)" d="M0,1 1.7,2 1.7,2 0,1 z"/>
                                <path fill="#ebedf0" filter="url(#brightness2)" d="M1.7,2 3.4,1 3.4,1 1.7,2 z"/>
                            </g>
                        </g>
                        <g transform="translate(3.4, 2)">
                            <g transform="translate(0, 6)">
                                <path fill="#ebedf0" d="M1.7,2 0,1 1.7,0 3.4,1 z"/>
                                <path fill="#ebedf0" filter="url(#brightness1)" d="M0,1 1.7,2 1.7,2 0,1 z"/>
                                <path fill="#ebedf0" filter="url(#brightness2)" d="M1.7,2 3.4,1 3.4,1 1.7,2 z"/>
                            </g>
                            <g transform="translate(-1.7, 7)">
                                <path fill="#ebedf0" d="M1.7,2 0,1 1.7,0 3.4,1 z"/>
                                <path fill="#ebedf0" filter="url(#brightness1)" d="M0,1 1.7,2 1.7,2 0,1 z"/>
                                <path fill="#ebedf0" filter="url(#brightness2)" d="M1.7,2 3.4,1 3.4,1 1.7,2 z"/>
                            </g>
                            <g transform="translate(-3.4, 8)">
                                <path fill="#ebedf0" d="M1.7,2 0,1 1.7,0 3.4,1 z"/>
                                <path fill="#ebedf0" filter="url(#brightness1)" d="M0,1 1.7,2 1.7,2 0,1 z"/>
                                <path fill="#ebedf0" filter="url(#brightness2)" d="M1.7,2 3.4,1 3.4,1 1.7,2 z"/>
                            </g>
                            <g transform="translate(-5.1, 9)">
                                <path fill="#ebedf0" d="M1.7,2 0,1 1.7,0 3.4,1 z"/>
                                <path fill="#ebedf0" filter="url(#brightness1)" d="M0,1 1.7,2 1.7,2 0,1 z"/>
                                <path fill="#ebedf0" filter="url(#brightness2)" d="M1.7,2 3.4,1 3.4,1 1.7,2 z"/>
                            </g>
                            <g transform="translate(-6.8, 10)">
                                <path fill="#ebedf0" d="M1.7,2 0,1 1.7,0 3.4,1 z"/>
                                <path fill="#ebedf0" filter="url(#brightness1)" d="M0,1 1.7,2 1.7,2 0,1 z"/>
                                <path fill="#ebedf0" filter="url(#brightness2)" d="M1.7,2 3.4,1 3.4,1 1.7,2 z"/>
                            </g>
                            <g transform="translate(-8.5, 10.720930232558139)">
                                <path fill="#9be9a8" d="M1.7,2 0,1 1.7,0 3.4,1 z"/>
                                <path fill="#9be9a8" filter="url(#brightness1)" d="M0,1 1.7,2 1.7,2.2790697674418605 0,1.2790697674418605 z"/>
                                <path fill="#9be9a8" filter="url(#brightness2)" d="M1.7,2 3.4,1 3.4,1.2790697674418605 1.7,2.2790697674418605 z"/>
                            </g>
                            <g transform="translate(-10.2, 12)">
                                <path fill="#ebedf0" d="M1.7,2 0,1 1.7,0 3.4,1 z"/>
                                <path fill="#ebedf0" filter="url(#brightness1)" d="M0,1 1.7,2 1.7,2 0,1 z"/>
                                <path fill="#ebedf0" filter="url(#brightness2)" d="M1.7,2 3.4,1 3.4,1 1.7,2 z"/>
                            </g>
                        </g>
                        <g transform="translate(5.1, 3)">
                            <g transform="translate(0, 6)">
                                <path fill="#ebedf0" d="M1.7,2 0,1 1.7,0 3.4,1 z"/>
                                <path fill="#ebedf0" filter="url(#brightness1)" d="M0,1 1.7,2 1.7,2 0,1 z"/>
                                <path fill="#ebedf0" filter="url(#brightness2)" d="M1.7,2 3.4,1 3.4,1 1.7,2 z"/>
                            </g>
                            <g transform="translate(-1.7, 5.883720930232558)">
                                <path fill="#216e39" d="M1.7,2 0,1 1.7,0 3.4,1 z"/>
                                <path fill="#216e39" filter="url(#brightness1)" d="M0,1 1.7,2 1.7,3.116279069767442 0,2.116279069767442 z"/>
                                <path fill="#216e39" filter="url(#brightness2)" d="M1.7,2 3.4,1 3.4,2.116279069767442 1.7,3.116279069767442 z"/>
                            </g>
                            <g transform="translate(-3.4, 7.162790697674419)">
                                <path fill="#30a14e" d="M1.7,2 0,1 1.7,0 3.4,1 z"/>
                                <path fill="#30a14e" filter="url(#brightness1)" d="M0,1 1.7,2 1.7,2.837209302325581 0,1.8372093023255813 z"/>
                                <path fill="#30a14e" filter="url(#brightness2)" d="M1.7,2 3.4,1 3.4,1.8372093023255813 1.7,2.837209302325581 z"/>
                            </g>
                            <g transform="translate(-5.1, 9)">
                                <path fill="#ebedf0" d="M1.7,2 0,1 1.7,0 3.4,1 z"/>
                                <path fill="#ebedf0" filter="url(#brightness1)" d="M0,1 1.7,2 1.7,2 0,1 z"/>
                                <path fill="#ebedf0" filter="url(#brightness2)" d="M1.7,2 3.4,1 3.4,1 1.7,2 z"/>
                            </g>
                            <g transform="translate(-6.8, 10)">
                                <path fill="#ebedf0" d="M1.7,2 0,1 1.7,0 3.4,1 z"/>
                                <path fill="#ebedf0" filter="url(#brightness1)" d="M0,1 1.7,2 1.7,2 0,1 z"/>
                                <path fill="#ebedf0" filter="url(#brightness2)" d="M1.7,2 3.4,1 3.4,1 1.7,2 z"/>
                            </g>
                            <g transform="translate(-8.5, 10.44186046511628)">
                                <path fill="#40c463" d="M1.7,2 0,1 1.7,0 3.4,1 z"/>
                                <path fill="#40c463" filter="url(#brightness1)" d="M0,1 1.7,2 1.7,2.558139534883721 0,1.558139534883721 z"/>
                                <path fill="#40c463" filter="url(#brightness2)" d="M1.7,2 3.4,1 3.4,1.558139534883721 1.7,2.558139534883721 z"/>
                            </g>
                            <g transform="translate(-10.2, 12)">
                                <path fill="#ebedf0" d="M1.7,2 0,1 1.7,0 3.4,1 z"/>
                                <path fill="#ebedf0" filter="url(#brightness1)" d="M0,1 1.7,2 1.7,2 0,1 z"/>
                                <path fill="#ebedf0" filter="url(#brightness2)" d="M1.7,2 3.4,1 3.4,1 1.7,2 z"/>
                            </g>
                        </g>
                        <g transform="translate(6.8, 4)">
                            <g transform="translate(0, 6)">
                                <path fill="#ebedf0" d="M1.7,2 0,1 1.7,0 3.4,1 z"/>
                                <path fill="#ebedf0" filter="url(#brightness1)" d="M0,1 1.7,2 1.7,2 0,1 z"/>
                                <path fill="#ebedf0" filter="url(#brightness2)" d="M1.7,2 3.4,1 3.4,1 1.7,2 z"/>
                            </g>
                            <g transform="translate(-1.7, 6.72093023255814)">
                                <path fill="#9be9a8" d="M1.7,2 0,1 1.7,0 3.4,1 z"/>
                                <path fill="#9be9a8" filter="url(#brightness1)" d="M0,1 1.7,2 1.7,2.2790697674418605 0,1.2790697674418605 z"/>
                                <path fill="#9be9a8" filter="url(#brightness2)" d="M1.7,2 3.4,1 3.4,1.2790697674418605 1.7,2.2790697674418605 z"/>
                            </g>
                            <g transform="translate(-3.4, 7.5813953488372094)">
                                <path fill="#9be9a8" d="M1.7,2 0,1 1.7,0 3.4,1 z"/>
                                <path fill="#9be9a8" filter="url(#brightness1)" d="M0,1 1.7,2 1.7,2.4186046511627906 0,1.4186046511627906 z"/>
                                <path fill="#9be9a8" filter="url(#brightness2)" d="M1.7,2 3.4,1 3.4,1.4186046511627906 1.7,2.4186046511627906 z"/>
                            </g>
                            <g transform="translate(-5.1, 8.720930232558139)">
                                <path fill="#9be9a8" d="M1.7,2 0,1 1.7,0 3.4,1 z"/>
                                <path fill="#9be9a8" filter="url(#brightness1)" d="M0,1 1.7,2 1.7,2.2790697674418605 0,1.2790697674418605 z"/>
                                <path fill="#9be9a8" filter="url(#brightness2)" d="M1.7,2 3.4,1 3.4,1.2790697674418605 1.7,2.2790697674418605 z"/>
                            </g>
                            <g transform="translate(-6.8, 9.720930232558139)">
                                <path fill="#9be9a8" d="M1.7,2 0,1 1.7,0 3.4,1 z"/>
                                <path fill="#9be9a8" filter="url(#brightness1)" d="M0,1 1.7,2 1.7,2.2790697674418605 0,1.2790697674418605 z"/>
                                <path fill="#9be9a8" filter="url(#brightness2)" d="M1.7,2 3.4,1 3.4,1.2790697674418605 1.7,2.2790697674418605 z"/>
                            </g>
                            <g transform="translate(-8.5, 10.44186046511628)">
                                <path fill="#9be9a8" d="M1.7,2 0,1 1.7,0 3.4,1 z"/>
                                <path fill="#9be9a8" filter="url(#brightness1)" d="M0,1 1.7,2 1.7,2.558139534883721 0,1.558139534883721 z"/>
                                <path fill="#9be9a8" filter="url(#brightness2)" d="M1.7,2 3.4,1 3.4,1.558139534883721 1.7,2.558139534883721 z"/>
                            </g>
                            <g transform="translate(-10.2, 12)">
                                <path fill="#ebedf0" d="M1.7,2 0,1 1.7,0 3.4,1 z"/>
                                <path fill="#ebedf0" filter="url(#brightness1)" d="M0,1 1.7,2 1.7,2 0,1 z"/>
                                <path fill="#ebedf0" filter="url(#brightness2)" d="M1.7,2 3.4,1 3.4,1 1.7,2 z"/>
                            </g>
                        </g>
                        <g transform="translate(8.5, 5)">
                            <g transform="translate(0, 5.5813953488372094)">
                                <path fill="#9be9a8" d="M1.7,2 0,1 1.7,0 3.4,1 z"/>
                                <path fill="#9be9a8" filter="url(#brightness1)" d="M0,1 1.7,2 1.7,2.4186046511627906 0,1.4186046511627906 z"/>
                                <path fill="#9be9a8" filter="url(#brightness2)" d="M1.7,2 3.4,1 3.4,1.4186046511627906 1.7,2.4186046511627906 z"/>
                            </g>
                            <g transform="translate(-1.7, 3.511627906976744)">
                                <path fill="#30a14e" d="M1.7,2 0,1 1.7,0 3.4,1 z"/>
                                <path fill="#30a14e" filter="url(#brightness1)" d="M0,1 1.7,2 1.7,5.488372093023256 0,4.488372093023256 z"/>
                                <path fill="#30a14e" filter="url(#brightness2)" d="M1.7,2 3.4,1 3.4,4.488372093023256 1.7,5.488372093023256 z"/>
                            </g>
                            <g transform="translate(-3.4, 4.930232558139535)">
                                <path fill="#30a14e" d="M1.7,2 0,1 1.7,0 3.4,1 z"/>
                                <path fill="#30a14e" filter="url(#brightness1)" d="M0,1 1.7,2 1.7,5.069767441860465 0,4.069767441860465 z"/>
                                <path fill="#30a14e" filter="url(#brightness2)" d="M1.7,2 3.4,1 3.4,4.069767441860465 1.7,5.069767441860465 z"/>
                            </g>
                            <g transform="translate(-5.1, 6.906976744186046)">
                                <path fill="#40c463" d="M1.7,2 0,1 1.7,0 3.4,1 z"/>
                                <path fill="#40c463" filter="url(#brightness1)" d="M0,1 1.7,2 1.7,4.093023255813954 0,3.0930232558139537 z"/>
                                <path fill="#40c463" filter="url(#brightness2)" d="M1.7,2 3.4,1 3.4,3.0930232558139537 1.7,4.093023255813954 z"/>
                            </g>
                            <g transform="translate(-6.8, 9.023255813953488)">
                                <path fill="#9be9a8" d="M1.7,2 0,1 1.7,0 3.4,1 z"/>
                                <path fill="#9be9a8" filter="url(#brightness1)" d="M0,1 1.7,2 1.7,2.9767441860465116 0,1.9767441860465116 z"/>
                                <path fill="#9be9a8" filter="url(#brightness2)" d="M1.7,2 3.4,1 3.4,1.9767441860465116 1.7,2.9767441860465116 z"/>
                            </g>
                            <g transform="translate(-8.5, 10.720930232558139)">
                                <path fill="#9be9a8" d="M1.7,2 0,1 1.7,0 3.4,1 z"/>
                                <path fill="#9be9a8" filter="url(#brightness1)" d="M0,1 1.7,2 1.7,2.2790697674418605 0,1.2790697674418605 z"/>
                                <path fill="#9be9a8" filter="url(#brightness2)" d="M1.7,2 3.4,1 3.4,1.2790697674418605 1.7,2.2790697674418605 z"/>
                            </g>
                            <g transform="translate(-10.2, 10.604651162790699)">
                                <path fill="#9be9a8" d="M1.7,2 0,1 1.7,0 3.4,1 z"/>
                                <path fill="#9be9a8" filter="url(#brightness1)" d="M0,1 1.7,2 1.7,3.395348837209302 0,2.395348837209302 z"/>
                                <path fill="#9be9a8" filter="url(#brightness2)" d="M1.7,2 3.4,1 3.4,2.395348837209302 1.7,3.395348837209302 z"/>
                            </g>
                        </g>
                        <g transform="translate(10.2, 6)">
                            <g transform="translate(0, 6)">
                                <path fill="#ebedf0" d="M1.7,2 0,1 1.7,0 3.4,1 z"/>
                                <path fill="#ebedf0" filter="url(#brightness1)" d="M0,1 1.7,2 1.7,2 0,1 z"/>
                                <path fill="#ebedf0" filter="url(#brightness2)" d="M1.7,2 3.4,1 3.4,1 1.7,2 z"/>
                            </g>
                            <g transform="translate(-1.7, 6.162790697674419)">
                                <path fill="#9be9a8" d="M1.7,2 0,1 1.7,0 3.4,1 z"/>
                                <path fill="#9be9a8" filter="url(#brightness1)" d="M0,1 1.7,2 1.7,2.837209302325581 0,1.8372093023255813 z"/>
                                <path fill="#9be9a8" filter="url(#brightness2)" d="M1.7,2 3.4,1 3.4,1.8372093023255813 1.7,2.837209302325581 z"/>
                            </g>
                            <g transform="translate(-3.4, 6.7441860465116275)">
                                <path fill="#9be9a8" d="M1.7,2 0,1 1.7,0 3.4,1 z"/>
                                <path fill="#9be9a8" filter="url(#brightness1)" d="M0,1 1.7,2 1.7,3.255813953488372 0,2.255813953488372 z"/>
                                <path fill="#9be9a8" filter="url(#brightness2)" d="M1.7,2 3.4,1 3.4,2.255813953488372 1.7,3.255813953488372 z"/>
                            </g>
                            <g transform="translate(-5.1, 8.720930232558139)">
                                <path fill="#9be9a8" d="M1.7,2 0,1 1.7,0 3.4,1 z"/>
                                <path fill="#9be9a8" filter="url(#brightness1)" d="M0,1 1.7,2 1.7,2.2790697674418605 0,1.2790697674418605 z"/>
                                <path fill="#9be9a8" filter="url(#brightness2)" d="M1.7,2 3.4,1 3.4,1.2790697674418605 1.7,2.2790697674418605 z"/>
                            </g>
                            <g transform="translate(-6.8, 9.44186046511628)">
                                <path fill="#9be9a8" d="M1.7,2 0,1 1.7,0 3.4,1 z"/>
                                <path fill="#9be9a8" filter="url(#brightness1)" d="M0,1 1.7,2 1.7,2.558139534883721 0,1.558139534883721 z"/>
                                <path fill="#9be9a8" filter="url(#brightness2)" d="M1.7,2 3.4,1 3.4,1.558139534883721 1.7,2.558139534883721 z"/>
                            </g>
                            <g transform="translate(-8.5, 8.906976744186046)">
                                <path fill="#40c463" d="M1.7,2 0,1 1.7,0 3.4,1 z"/>
                                <path fill="#40c463" filter="url(#brightness1)" d="M0,1 1.7,2 1.7,4.093023255813954 0,3.0930232558139537 z"/>
                                <path fill="#40c463" filter="url(#brightness2)" d="M1.7,2 3.4,1 3.4,3.0930232558139537 1.7,4.093023255813954 z"/>
                            </g>
                            <g transform="translate(-10.2, 6)">
                                <path fill="#216e39" d="M1.7,2 0,1 1.7,0 3.4,1 z"/>
                                <path fill="#216e39" filter="url(#brightness1)" d="M0,1 1.7,2 1.7,8 0,7 z"/>
                                <path fill="#216e39" filter="url(#brightness2)" d="M1.7,2 3.4,1 3.4,7 1.7,8 z"/>
                            </g>
                        </g>
                        <g transform="translate(11.9, 7)">
                            <g transform="translate(0, 5.5813953488372094)">
                                <path fill="#9be9a8" d="M1.7,2 0,1 1.7,0 3.4,1 z"/>
                                <path fill="#9be9a8" filter="url(#brightness1)" d="M0,1 1.7,2 1.7,2.4186046511627906 0,1.4186046511627906 z"/>
                                <path fill="#9be9a8" filter="url(#brightness2)" d="M1.7,2 3.4,1 3.4,1.4186046511627906 1.7,2.4186046511627906 z"/>
                            </g>
                            <g transform="translate(-1.7, 6.023255813953488)">
                                <path fill="#9be9a8" d="M1.7,2 0,1 1.7,0 3.4,1 z"/>
                                <path fill="#9be9a8" filter="url(#brightness1)" d="M0,1 1.7,2 1.7,2.9767441860465116 0,1.9767441860465116 z"/>
                                <path fill="#9be9a8" filter="url(#brightness2)" d="M1.7,2 3.4,1 3.4,1.9767441860465116 1.7,2.9767441860465116 z"/>
                            </g>
                            <g transform="translate(-3.4, 7.5813953488372094)">
                                <path fill="#9be9a8" d="M1.7,2 0,1 1.7,0 3.4,1 z"/>
                                <path fill="#9be9a8" filter="url(#brightness1)" d="M0,1 1.7,2 1.7,2.4186046511627906 0,1.4186046511627906 z"/>
                                <path fill="#9be9a8" filter="url(#brightness2)" d="M1.7,2 3.4,1 3.4,1.4186046511627906 1.7,2.4186046511627906 z"/>
                            </g>
                            <g transform="translate(-5.1, 5.790697674418605)">
                                <path fill="#30a14e" d="M1.7,2 0,1 1.7,0 3.4,1 z"/>
                                <path fill="#30a14e" filter="url(#brightness1)" d="M0,1 1.7,2 1.7,5.209302325581395 0,4.209302325581395 z"/>
                                <path fill="#30a14e" filter="url(#brightness2)" d="M1.7,2 3.4,1 3.4,4.209302325581395 1.7,5.209302325581395 z"/>
                            </g>
                            <g transform="translate(-6.8, 9.162790697674419)">
                                <path fill="#9be9a8" d="M1.7,2 0,1 1.7,0 3.4,1 z"/>
                                <path fill="#9be9a8" filter="url(#brightness1)" d="M0,1 1.7,2 1.7,2.837209302325581 0,1.8372093023255813 z"/>
                                <path fill="#9be9a8" filter="url(#brightness2)" d="M1.7,2 3.4,1 3.4,1.8372093023255813 1.7,2.837209302325581 z"/>
                            </g>
                            <g transform="translate(-8.5, 9.046511627906977)">
                                <path fill="#40c463" d="M1.7,2 0,1 1.7,0 3.4,1 z"/>
                                <path fill="#40c463" filter="url(#brightness1)" d="M0,1 1.7,2 1.7,3.953488372093023 0,2.953488372093023 z"/>
                                <path fill="#40c463" filter="url(#brightness2)" d="M1.7,2 3.4,1 3.4,2.953488372093023 1.7,3.953488372093023 z"/>
                            </g>
                            <g transform="translate(-10.2, 10.883720930232558)">
                                <path fill="#9be9a8" d="M1.7,2 0,1 1.7,0 3.4,1 z"/>
                                <path fill="#9be9a8" filter="url(#brightness1)" d="M0,1 1.7,2 1.7,3.116279069767442 0,2.116279069767442 z"/>
                                <path fill="#9be9a8" filter="url(#brightness2)" d="M1.7,2 3.4,1 3.4,2.116279069767442 1.7,3.116279069767442 z"/>
                            </g>
                        </g>
                        <g transform="translate(13.6, 8)">
                            <g transform="translate(0, 6)">
                                <path fill="#ebedf0" d="M1.7,2 0,1 1.7,0 3.4,1 z"/>
                                <path fill="#ebedf0" filter="url(#brightness1)" d="M0,1 1.7,2 1.7,2 0,1 z"/>
                                <path fill="#ebedf0" filter="url(#brightness2)" d="M1.7,2 3.4,1 3.4,1 1.7,2 z"/>
                            </g>
                            <g transform="translate(-1.7, 6.8604651162790695)">
                                <path fill="#9be9a8" d="M1.7,2 0,1 1.7,0 3.4,1 z"/>
                                <path fill="#9be9a8" filter="url(#brightness1)" d="M0,1 1.7,2 1.7,2.13953488372093 0,1.1395348837209303 z"/>
                                <path fill="#9be9a8" filter="url(#brightness2)" d="M1.7,2 3.4,1 3.4,1.1395348837209303 1.7,2.13953488372093 z"/>
                            </g>
                            <g transform="translate(-3.4, 8)">
                                <path fill="#ebedf0" d="M1.7,2 0,1 1.7,0 3.4,1 z"/>
                                <path fill="#ebedf0" filter="url(#brightness1)" d="M0,1 1.7,2 1.7,2 0,1 z"/>
                                <path fill="#ebedf0" filter="url(#brightness2)" d="M1.7,2 3.4,1 3.4,1 1.7,2 z"/>
                            </g>
                            <g transform="translate(-5.1, 8.581395348837209)">
                                <path fill="#9be9a8" d="M1.7,2 0,1 1.7,0 3.4,1 z"/>
                                <path fill="#9be9a8" filter="url(#brightness1)" d="M0,1 1.7,2 1.7,2.4186046511627906 0,1.4186046511627906 z"/>
                                <path fill="#9be9a8" filter="url(#brightness2)" d="M1.7,2 3.4,1 3.4,1.4186046511627906 1.7,2.4186046511627906 z"/>
                            </g>
                            <g transform="translate(-6.8, 7.627906976744185)">
                                <path fill="#216e39" d="M1.7,2 0,1 1.7,0 3.4,1 z"/>
                                <path fill="#216e39" filter="url(#brightness1)" d="M0,1 1.7,2 1.7,4.372093023255814 0,3.3720930232558137 z"/>
                                <path fill="#216e39" filter="url(#brightness2)" d="M1.7,2 3.4,1 3.4,3.3720930232558137 1.7,4.372093023255814 z"/>
                            </g>
                            <g transform="translate(-8.5, 11)">
                                <path fill="#ebedf0" d="M1.7,2 0,1 1.7,0 3.4,1 z"/>
                                <path fill="#ebedf0" filter="url(#brightness1)" d="M0,1 1.7,2 1.7,2 0,1 z"/>
                                <path fill="#ebedf0" filter="url(#brightness2)" d="M1.7,2 3.4,1 3.4,1 1.7,2 z"/>
                            </g>
                            <g transform="translate(-10.2, 12)">
                                <path fill="#ebedf0" d="M1.7,2 0,1 1.7,0 3.4,1 z"/>
                                <path fill="#ebedf0" filter="url(#brightness1)" d="M0,1 1.7,2 1.7,2 0,1 z"/>
                                <path fill="#ebedf0" filter="url(#brightness2)" d="M1.7,2 3.4,1 3.4,1 1.7,2 z"/>
                            </g>
                        </g>
                        <g transform="translate(15.299999999999999, 9)">
                            <g transform="translate(0, 5.5813953488372094)">
                                <path fill="#9be9a8" d="M1.7,2 0,1 1.7,0 3.4,1 z"/>
                                <path fill="#9be9a8" filter="url(#brightness1)" d="M0,1 1.7,2 1.7,2.4186046511627906 0,1.4186046511627906 z"/>
                                <path fill="#9be9a8" filter="url(#brightness2)" d="M1.7,2 3.4,1 3.4,1.4186046511627906 1.7,2.4186046511627906 z"/>
                            </g>
                            <g transform="translate(-1.7, 5.604651162790698)">
                                <path fill="#30a14e" d="M1.7,2 0,1 1.7,0 3.4,1 z"/>
                                <path fill="#30a14e" filter="url(#brightness1)" d="M0,1 1.7,2 1.7,3.395348837209302 0,2.395348837209302 z"/>
                                <path fill="#30a14e" filter="url(#brightness2)" d="M1.7,2 3.4,1 3.4,2.395348837209302 1.7,3.395348837209302 z"/>
                            </g>
                            <g transform="translate(-3.4, 8)">
                                <path fill="#ebedf0" d="M1.7,2 0,1 1.7,0 3.4,1 z"/>
                                <path fill="#ebedf0" filter="url(#brightness1)" d="M0,1 1.7,2 1.7,2 0,1 z"/>
                                <path fill="#ebedf0" filter="url(#brightness2)" d="M1.7,2 3.4,1 3.4,1 1.7,2 z"/>
                            </g>
                            <g transform="translate(-5.1, 9)">
                                <path fill="#ebedf0" d="M1.7,2 0,1 1.7,0 3.4,1 z"/>
                                <path fill="#ebedf0" filter="url(#brightness1)" d="M0,1 1.7,2 1.7,2 0,1 z"/>
                                <path fill="#ebedf0" filter="url(#brightness2)" d="M1.7,2 3.4,1 3.4,1 1.7,2 z"/>
                            </g>
                            <g transform="translate(-6.8, 9.30232558139535)">
                                <path fill="#40c463" d="M1.7,2 0,1 1.7,0 3.4,1 z"/>
                                <path fill="#40c463" filter="url(#brightness1)" d="M0,1 1.7,2 1.7,2.697674418604651 0,1.697674418604651 z"/>
                                <path fill="#40c463" filter="url(#brightness2)" d="M1.7,2 3.4,1 3.4,1.697674418604651 1.7,2.697674418604651 z"/>
                            </g>
                            <g transform="translate(-8.5, 10.162790697674419)">
                                <path fill="#40c463" d="M1.7,2 0,1 1.7,0 3.4,1 z"/>
                                <path fill="#40c463" filter="url(#brightness1)" d="M0,1 1.7,2 1.7,2.837209302325581 0,1.8372093023255813 z"/>
                                <path fill="#40c463" filter="url(#brightness2)" d="M1.7,2 3.4,1 3.4,1.8372093023255813 1.7,2.837209302325581 z"/>
                            </g>
                            <g transform="translate(-10.2, 12)">
                                <path fill="#ebedf0" d="M1.7,2 0,1 1.7,0 3.4,1 z"/>
                                <path fill="#ebedf0" filter="url(#brightness1)" d="M0,1 1.7,2 1.7,2 0,1 z"/>
                                <path fill="#ebedf0" filter="url(#brightness2)" d="M1.7,2 3.4,1 3.4,1 1.7,2 z"/>
                            </g>
                        </g>
                        <g transform="translate(17, 10)">
                            <g transform="translate(0, 6)">
                                <path fill="#ebedf0" d="M1.7,2 0,1 1.7,0 3.4,1 z"/>
                                <path fill="#ebedf0" filter="url(#brightness1)" d="M0,1 1.7,2 1.7,2 0,1 z"/>
                                <path fill="#ebedf0" filter="url(#brightness2)" d="M1.7,2 3.4,1 3.4,1 1.7,2 z"/>
                            </g>
                            <g transform="translate(-1.7, 7)">
                                <path fill="#ebedf0" d="M1.7,2 0,1 1.7,0 3.4,1 z"/>
                                <path fill="#ebedf0" filter="url(#brightness1)" d="M0,1 1.7,2 1.7,2 0,1 z"/>
                                <path fill="#ebedf0" filter="url(#brightness2)" d="M1.7,2 3.4,1 3.4,1 1.7,2 z"/>
                            </g>
                            <g transform="translate(-3.4, 8)">
                                <path fill="#ebedf0" d="M1.7,2 0,1 1.7,0 3.4,1 z"/>
                                <path fill="#ebedf0" filter="url(#brightness1)" d="M0,1 1.7,2 1.7,2 0,1 z"/>
                                <path fill="#ebedf0" filter="url(#brightness2)" d="M1.7,2 3.4,1 3.4,1 1.7,2 z"/>
                            </g>
                            <g transform="translate(-5.1, 9)">
                                <path fill="#ebedf0" d="M1.7,2 0,1 1.7,0 3.4,1 z"/>
                                <path fill="#ebedf0" filter="url(#brightness1)" d="M0,1 1.7,2 1.7,2 0,1 z"/>
                                <path fill="#ebedf0" filter="url(#brightness2)" d="M1.7,2 3.4,1 3.4,1 1.7,2 z"/>
                            </g>
                            <g transform="translate(-6.8, 10)">
                                <path fill="#ebedf0" d="M1.7,2 0,1 1.7,0 3.4,1 z"/>
                                <path fill="#ebedf0" filter="url(#brightness1)" d="M0,1 1.7,2 1.7,2 0,1 z"/>
                                <path fill="#ebedf0" filter="url(#brightness2)" d="M1.7,2 3.4,1 3.4,1 1.7,2 z"/>
                            </g>
                            <g transform="translate(-8.5, 11)">
                                <path fill="#ebedf0" d="M1.7,2 0,1 1.7,0 3.4,1 z"/>
                                <path fill="#ebedf0" filter="url(#brightness1)" d="M0,1 1.7,2 1.7,2 0,1 z"/>
                                <path fill="#ebedf0" filter="url(#brightness2)" d="M1.7,2 3.4,1 3.4,1 1.7,2 z"/>
                            </g>
                            <g transform="translate(-10.2, 12)">
                                <path fill="#ebedf0" d="M1.7,2 0,1 1.7,0 3.4,1 z"/>
                                <path fill="#ebedf0" filter="url(#brightness1)" d="M0,1 1.7,2 1.7,2 0,1 z"/>
                                <path fill="#ebedf0" filter="url(#brightness2)" d="M1.7,2 3.4,1 3.4,1 1.7,2 z"/>
                            </g>
                        </g>
                        <g transform="translate(18.7, 11)">
                            <g transform="translate(0, 6)">
                                <path fill="#ebedf0" d="M1.7,2 0,1 1.7,0 3.4,1 z"/>
                                <path fill="#ebedf0" filter="url(#brightness1)" d="M0,1 1.7,2 1.7,2 0,1 z"/>
                                <path fill="#ebedf0" filter="url(#brightness2)" d="M1.7,2 3.4,1 3.4,1 1.7,2 z"/>
                            </g>
                            <g transform="translate(-1.7, 7)">
                                <path fill="#ebedf0" d="M1.7,2 0,1 1.7,0 3.4,1 z"/>
                                <path fill="#ebedf0" filter="url(#brightness1)" d="M0,1 1.7,2 1.7,2 0,1 z"/>
                                <path fill="#ebedf0" filter="url(#brightness2)" d="M1.7,2 3.4,1 3.4,1 1.7,2 z"/>
                            </g>
                            <g transform="translate(-3.4, 8)">
                                <path fill="#ebedf0" d="M1.7,2 0,1 1.7,0 3.4,1 z"/>
                                <path fill="#ebedf0" filter="url(#brightness1)" d="M0,1 1.7,2 1.7,2 0,1 z"/>
                                <path fill="#ebedf0" filter="url(#brightness2)" d="M1.7,2 3.4,1 3.4,1 1.7,2 z"/>
                            </g>
                            <g transform="translate(-5.1, 6.767441860465116)">
                                <path fill="#216e39" d="M1.7,2 0,1 1.7,0 3.4,1 z"/>
                                <path fill="#216e39" filter="url(#brightness1)" d="M0,1 1.7,2 1.7,4.232558139534884 0,3.2325581395348837 z"/>
                                <path fill="#216e39" filter="url(#brightness2)" d="M1.7,2 3.4,1 3.4,3.2325581395348837 1.7,4.232558139534884 z"/>
                            </g>
                            <g transform="translate(-6.8, 7.488372093023255)">
                                <path fill="#216e39" d="M1.7,2 0,1 1.7,0 3.4,1 z"/>
                                <path fill="#216e39" filter="url(#brightness1)" d="M0,1 1.7,2 1.7,4.511627906976744 0,3.511627906976744 z"/>
                                <path fill="#216e39" filter="url(#brightness2)" d="M1.7,2 3.4,1 3.4,3.511627906976744 1.7,4.511627906976744 z"/>
                            </g>
                            <g transform="translate(-8.5, 10.023255813953488)">
                                <path fill="#40c463" d="M1.7,2 0,1 1.7,0 3.4,1 z"/>
                                <path fill="#40c463" filter="url(#brightness1)" d="M0,1 1.7,2 1.7,2.9767441860465116 0,1.9767441860465116 z"/>
                                <path fill="#40c463" filter="url(#brightness2)" d="M1.7,2 3.4,1 3.4,1.9767441860465116 1.7,2.9767441860465116 z"/>
                            </g>
                            <g transform="translate(-10.2, 12)">
                                <path fill="#ebedf0" d="M1.7,2 0,1 1.7,0 3.4,1 z"/>
                                <path fill="#ebedf0" filter="url(#brightness1)" d="M0,1 1.7,2 1.7,2 0,1 z"/>
                                <path fill="#ebedf0" filter="url(#brightness2)" d="M1.7,2 3.4,1 3.4,1 1.7,2 z"/>
                            </g>
                        </g>
                        <g transform="translate(20.4, 12)">
                            <g transform="translate(0, 6)">
                                <path fill="#ebedf0" d="M1.7,2 0,1 1.7,0 3.4,1 z"/>
                                <path fill="#ebedf0" filter="url(#brightness1)" d="M0,1 1.7,2 1.7,2 0,1 z"/>
                                <path fill="#ebedf0" filter="url(#brightness2)" d="M1.7,2 3.4,1 3.4,1 1.7,2 z"/>
                            </g>
                            <g transform="translate(-1.7, 6.162790697674419)">
                                <path fill="#216e39" d="M1.7,2 0,1 1.7,0 3.4,1 z"/>
                                <path fill="#216e39" filter="url(#brightness1)" d="M0,1 1.7,2 1.7,2.837209302325581 0,1.8372093023255813 z"/>
                                <path fill="#216e39" filter="url(#brightness2)" d="M1.7,2 3.4,1 3.4,1.8372093023255813 1.7,2.837209302325581 z"/>
                            </g>
                            <g transform="translate(-3.4, 7.5813953488372094)">
                                <path fill="#40c463" d="M1.7,2 0,1 1.7,0 3.4,1 z"/>
                                <path fill="#40c463" filter="url(#brightness1)" d="M0,1 1.7,2 1.7,2.4186046511627906 0,1.4186046511627906 z"/>
                                <path fill="#40c463" filter="url(#brightness2)" d="M1.7,2 3.4,1 3.4,1.4186046511627906 1.7,2.4186046511627906 z"/>
                            </g>
                            <g transform="translate(-5.1, 8.30232558139535)">
                                <path fill="#30a14e" d="M1.7,2 0,1 1.7,0 3.4,1 z"/>
                                <path fill="#30a14e" filter="url(#brightness1)" d="M0,1 1.7,2 1.7,2.697674418604651 0,1.697674418604651 z"/>
                                <path fill="#30a14e" filter="url(#brightness2)" d="M1.7,2 3.4,1 3.4,1.697674418604651 1.7,2.697674418604651 z"/>
                            </g>
                            <g transform="translate(-6.8, 9.023255813953488)">
                                <path fill="#216e39" d="M1.7,2 0,1 1.7,0 3.4,1 z"/>
                                <path fill="#216e39" filter="url(#brightness1)" d="M0,1 1.7,2 1.7,2.9767441860465116 0,1.9767441860465116 z"/>
                                <path fill="#216e39" filter="url(#brightness2)" d="M1.7,2 3.4,1 3.4,1.9767441860465116 1.7,2.9767441860465116 z"/>
                            </g>
                            <g transform="translate(-8.5, 11)">
                                <path fill="#ebedf0" d="M1.7,2 0,1 1.7,0 3.4,1 z"/>
                                <path fill="#ebedf0" filter="url(#brightness1)" d="M0,1 1.7,2 1.7,2 0,1 z"/>
                                <path fill="#ebedf0" filter="url(#brightness2)" d="M1.7,2 3.4,1 3.4,1 1.7,2 z"/>
                            </g>
                            <g transform="translate(-10.2, 12)">
                                <path fill="#ebedf0" d="M1.7,2 0,1 1.7,0 3.4,1 z"/>
                                <path fill="#ebedf0" filter="url(#brightness1)" d="M0,1 1.7,2 1.7,2 0,1 z"/>
                                <path fill="#ebedf0" filter="url(#brightness2)" d="M1.7,2 3.4,1 3.4,1 1.7,2 z"/>
                            </g>
                        </g>
                        <g transform="translate(22.099999999999998, 13)">
                            <g transform="translate(0, 6)">
                                <path fill="#ebedf0" d="M1.7,2 0,1 1.7,0 3.4,1 z"/>
                                <path fill="#ebedf0" filter="url(#brightness1)" d="M0,1 1.7,2 1.7,2 0,1 z"/>
                                <path fill="#ebedf0" filter="url(#brightness2)" d="M1.7,2 3.4,1 3.4,1 1.7,2 z"/>
                            </g>
                            <g transform="translate(-1.7, 6.8604651162790695)">
                                <path fill="#9be9a8" d="M1.7,2 0,1 1.7,0 3.4,1 z"/>
                                <path fill="#9be9a8" filter="url(#brightness1)" d="M0,1 1.7,2 1.7,2.13953488372093 0,1.1395348837209303 z"/>
                                <path fill="#9be9a8" filter="url(#brightness2)" d="M1.7,2 3.4,1 3.4,1.1395348837209303 1.7,2.13953488372093 z"/>
                            </g>
                            <g transform="translate(-3.4, 7.5813953488372094)">
                                <path fill="#40c463" d="M1.7,2 0,1 1.7,0 3.4,1 z"/>
                                <path fill="#40c463" filter="url(#brightness1)" d="M0,1 1.7,2 1.7,2.4186046511627906 0,1.4186046511627906 z"/>
                                <path fill="#40c463" filter="url(#brightness2)" d="M1.7,2 3.4,1 3.4,1.4186046511627906 1.7,2.4186046511627906 z"/>
                            </g>
                            <g transform="translate(-5.1, 8.581395348837209)">
                                <path fill="#40c463" d="M1.7,2 0,1 1.7,0 3.4,1 z"/>
                                <path fill="#40c463" filter="url(#brightness1)" d="M0,1 1.7,2 1.7,2.4186046511627906 0,1.4186046511627906 z"/>
                                <path fill="#40c463" filter="url(#brightness2)" d="M1.7,2 3.4,1 3.4,1.4186046511627906 1.7,2.4186046511627906 z"/>
                            </g>
                            <g transform="translate(-6.8, 9.720930232558139)">
                                <path fill="#40c463" d="M1.7,2 0,1 1.7,0 3.4,1 z"/>
                                <path fill="#40c463" filter="url(#brightness1)" d="M0,1 1.7,2 1.7,2.2790697674418605 0,1.2790697674418605 z"/>
                                <path fill="#40c463" filter="url(#brightness2)" d="M1.7,2 3.4,1 3.4,1.2790697674418605 1.7,2.2790697674418605 z"/>
                            </g>
                            <g transform="translate(-8.5, 10.86046511627907)">
                                <path fill="#9be9a8" d="M1.7,2 0,1 1.7,0 3.4,1 z"/>
                                <path fill="#9be9a8" filter="url(#brightness1)" d="M0,1 1.7,2 1.7,2.13953488372093 0,1.1395348837209303 z"/>
                                <path fill="#9be9a8" filter="url(#brightness2)" d="M1.7,2 3.4,1 3.4,1.1395348837209303 1.7,2.13953488372093 z"/>
                            </g>
                            <g transform="translate(-10.2, 11.86046511627907)">
                                <path fill="#9be9a8" d="M1.7,2 0,1 1.7,0 3.4,1 z"/>
                                <path fill="#9be9a8" filter="url(#brightness1)" d="M0,1 1.7,2 1.7,2.13953488372093 0,1.1395348837209303 z"/>
                                <path fill="#9be9a8" filter="url(#brightness2)" d="M1.7,2 3.4,1 3.4,1.1395348837209303 1.7,2.13953488372093 z"/>
                            </g>
                        </g>
                        <g transform="translate(23.8, 14)">
                            <g transform="translate(0, 6)">
                                <path fill="#ebedf0" d="M1.7,2 0,1 1.7,0 3.4,1 z"/>
                                <path fill="#ebedf0" filter="url(#brightness1)" d="M0,1 1.7,2 1.7,2 0,1 z"/>
                                <path fill="#ebedf0" filter="url(#brightness2)" d="M1.7,2 3.4,1 3.4,1 1.7,2 z"/>
                            </g>
                            <g transform="translate(-1.7, 6.5813953488372094)">
                                <path fill="#40c463" d="M1.7,2 0,1 1.7,0 3.4,1 z"/>
                                <path fill="#40c463" filter="url(#brightness1)" d="M0,1 1.7,2 1.7,2.4186046511627906 0,1.4186046511627906 z"/>
                                <path fill="#40c463" filter="url(#brightness2)" d="M1.7,2 3.4,1 3.4,1.4186046511627906 1.7,2.4186046511627906 z"/>
                            </g>
                            <g transform="translate(-3.4, 8)">
                                <path fill="#ebedf0" d="M1.7,2 0,1 1.7,0 3.4,1 z"/>
                                <path fill="#ebedf0" filter="url(#brightness1)" d="M0,1 1.7,2 1.7,2 0,1 z"/>
                                <path fill="#ebedf0" filter="url(#brightness2)" d="M1.7,2 3.4,1 3.4,1 1.7,2 z"/>
                            </g>
                            <g transform="translate(-5.1, 8.720930232558139)">
                                <path fill="#40c463" d="M1.7,2 0,1 1.7,0 3.4,1 z"/>
                                <path fill="#40c463" filter="url(#brightness1)" d="M0,1 1.7,2 1.7,2.2790697674418605 0,1.2790697674418605 z"/>
                                <path fill="#40c463" filter="url(#brightness2)" d="M1.7,2 3.4,1 3.4,1.2790697674418605 1.7,2.2790697674418605 z"/>
                            </g>
                            <g transform="translate(-6.8, 10)">
                                <path fill="#ebedf0" d="M1.7,2 0,1 1.7,0 3.4,1 z"/>
                                <path fill="#ebedf0" filter="url(#brightness1)" d="M0,1 1.7,2 1.7,2 0,1 z"/>
                                <path fill="#ebedf0" filter="url(#brightness2)" d="M1.7,2 3.4,1 3.4,1 1.7,2 z"/>
                            </g>
                            <g transform="translate(-8.5, 11)">
                                <path fill="#ebedf0" d="M1.7,2 0,1 1.7,0 3.4,1 z"/>
                                <path fill="#ebedf0" filter="url(#brightness1)" d="M0,1 1.7,2 1.7,2 0,1 z"/>
                                <path fill="#ebedf0" filter="url(#brightness2)" d="M1.7,2 3.4,1 3.4,1 1.7,2 z"/>
                            </g>
                            <g transform="translate(-10.2, 12)">
                                <path fill="#ebedf0" d="M1.7,2 0,1 1.7,0 3.4,1 z"/>
                                <path fill="#ebedf0" filter="url(#brightness1)" d="M0,1 1.7,2 1.7,2 0,1 z"/>
                                <path fill="#ebedf0" filter="url(#brightness2)" d="M1.7,2 3.4,1 3.4,1 1.7,2 z"/>
                            </g>
                        </g>
                        <g transform="translate(25.5, 15)">
                            <g transform="translate(0, 6)">
                                <path fill="#ebedf0" d="M1.7,2 0,1 1.7,0 3.4,1 z"/>
                                <path fill="#ebedf0" filter="url(#brightness1)" d="M0,1 1.7,2 1.7,2 0,1 z"/>
                                <path fill="#ebedf0" filter="url(#brightness2)" d="M1.7,2 3.4,1 3.4,1 1.7,2 z"/>
                            </g>
                            <g transform="translate(-1.7, 6.72093023255814)">
                                <path fill="#40c463" d="M1.7,2 0,1 1.7,0 3.4,1 z"/>
                                <path fill="#40c463" filter="url(#brightness1)" d="M0,1 1.7,2 1.7,2.2790697674418605 0,1.2790697674418605 z"/>
                                <path fill="#40c463" filter="url(#brightness2)" d="M1.7,2 3.4,1 3.4,1.2790697674418605 1.7,2.2790697674418605 z"/>
                            </g>
                            <g transform="translate(-3.4, 7.302325581395349)">
                                <path fill="#30a14e" d="M1.7,2 0,1 1.7,0 3.4,1 z"/>
                                <path fill="#30a14e" filter="url(#brightness1)" d="M0,1 1.7,2 1.7,2.697674418604651 0,1.697674418604651 z"/>
                                <path fill="#30a14e" filter="url(#brightness2)" d="M1.7,2 3.4,1 3.4,1.697674418604651 1.7,2.697674418604651 z"/>
                            </g>
                            <g transform="translate(-5.1, 8.86046511627907)">
                                <path fill="#9be9a8" d="M1.7,2 0,1 1.7,0 3.4,1 z"/>
                                <path fill="#9be9a8" filter="url(#brightness1)" d="M0,1 1.7,2 1.7,2.13953488372093 0,1.1395348837209303 z"/>
                                <path fill="#9be9a8" filter="url(#brightness2)" d="M1.7,2 3.4,1 3.4,1.1395348837209303 1.7,2.13953488372093 z"/>
                            </g>
                            <g transform="translate(-6.8, 7.069767441860465)">
                                <path fill="#216e39" d="M1.7,2 0,1 1.7,0 3.4,1 z"/>
                                <path fill="#216e39" filter="url(#brightness1)" d="M0,1 1.7,2 1.7,4.930232558139535 0,3.9302325581395348 z"/>
                                <path fill="#216e39" filter="url(#brightness2)" d="M1.7,2 3.4,1 3.4,3.9302325581395348 1.7,4.930232558139535 z"/>
                            </g>
                            <g transform="translate(-8.5, 10.30232558139535)">
                                <path fill="#30a14e" d="M1.7,2 0,1 1.7,0 3.4,1 z"/>
                                <path fill="#30a14e" filter="url(#brightness1)" d="M0,1 1.7,2 1.7,2.697674418604651 0,1.697674418604651 z"/>
                                <path fill="#30a14e" filter="url(#brightness2)" d="M1.7,2 3.4,1 3.4,1.697674418604651 1.7,2.697674418604651 z"/>
                            </g>
                            <g transform="translate(-10.2, 12)">
                                <path fill="#ebedf0" d="M1.7,2 0,1 1.7,0 3.4,1 z"/>
                                <path fill="#ebedf0" filter="url(#brightness1)" d="M0,1 1.7,2 1.7,2 0,1 z"/>
                                <path fill="#ebedf0" filter="url(#brightness2)" d="M1.7,2 3.4,1 3.4,1 1.7,2 z"/>
                            </g>
                        </g>
                        <g transform="translate(27.2, 16)">
                            <g transform="translate(0, 6)">
                                <path fill="#ebedf0" d="M1.7,2 0,1 1.7,0 3.4,1 z"/>
                                <path fill="#ebedf0" filter="url(#brightness1)" d="M0,1 1.7,2 1.7,2 0,1 z"/>
                                <path fill="#ebedf0" filter="url(#brightness2)" d="M1.7,2 3.4,1 3.4,1 1.7,2 z"/>
                            </g>
                            <g transform="translate(-1.7, 6.8604651162790695)">
                                <path fill="#9be9a8" d="M1.7,2 0,1 1.7,0 3.4,1 z"/>
                                <path fill="#9be9a8" filter="url(#brightness1)" d="M0,1 1.7,2 1.7,2.13953488372093 0,1.1395348837209303 z"/>
                                <path fill="#9be9a8" filter="url(#brightness2)" d="M1.7,2 3.4,1 3.4,1.1395348837209303 1.7,2.13953488372093 z"/>
                            </g>
                            <g transform="translate(-3.4, 8)">
                                <path fill="#ebedf0" d="M1.7,2 0,1 1.7,0 3.4,1 z"/>
                                <path fill="#ebedf0" filter="url(#brightness1)" d="M0,1 1.7,2 1.7,2 0,1 z"/>
                                <path fill="#ebedf0" filter="url(#brightness2)" d="M1.7,2 3.4,1 3.4,1 1.7,2 z"/>
                            </g>
                            <g transform="translate(-5.1, 8.720930232558139)">
                                <path fill="#9be9a8" d="M1.7,2 0,1 1.7,0 3.4,1 z"/>
                                <path fill="#9be9a8" filter="url(#brightness1)" d="M0,1 1.7,2 1.7,2.2790697674418605 0,1.2790697674418605 z"/>
                                <path fill="#9be9a8" filter="url(#brightness2)" d="M1.7,2 3.4,1 3.4,1.2790697674418605 1.7,2.2790697674418605 z"/>
                            </g>
                            <g transform="translate(-6.8, 9.86046511627907)">
                                <path fill="#9be9a8" d="M1.7,2 0,1 1.7,0 3.4,1 z"/>
                                <path fill="#9be9a8" filter="url(#brightness1)" d="M0,1 1.7,2 1.7,2.13953488372093 0,1.1395348837209303 z"/>
                                <path fill="#9be9a8" filter="url(#brightness2)" d="M1.7,2 3.4,1 3.4,1.1395348837209303 1.7,2.13953488372093 z"/>
                            </g>
                            <g transform="translate(-8.5, 11)">
                                <path fill="#ebedf0" d="M1.7,2 0,1 1.7,0 3.4,1 z"/>
                                <path fill="#ebedf0" filter="url(#brightness1)" d="M0,1 1.7,2 1.7,2 0,1 z"/>
                                <path fill="#ebedf0" filter="url(#brightness2)" d="M1.7,2 3.4,1 3.4,1 1.7,2 z"/>
                            </g>
                            <g transform="translate(-10.2, 12)">
                                <path fill="#ebedf0" d="M1.7,2 0,1 1.7,0 3.4,1 z"/>
                                <path fill="#ebedf0" filter="url(#brightness1)" d="M0,1 1.7,2 1.7,2 0,1 z"/>
                                <path fill="#ebedf0" filter="url(#brightness2)" d="M1.7,2 3.4,1 3.4,1 1.7,2 z"/>
                            </g>
                        </g>
                        <g transform="translate(28.9, 17)">
                            <g transform="translate(0, 6)">
                                <path fill="#ebedf0" d="M1.7,2 0,1 1.7,0 3.4,1 z"/>
                                <path fill="#ebedf0" filter="url(#brightness1)" d="M0,1 1.7,2 1.7,2 0,1 z"/>
                                <path fill="#ebedf0" filter="url(#brightness2)" d="M1.7,2 3.4,1 3.4,1 1.7,2 z"/>
                            </g>
                            <g transform="translate(-1.7, 6.8604651162790695)">
                                <path fill="#9be9a8" d="M1.7,2 0,1 1.7,0 3.4,1 z"/>
                                <path fill="#9be9a8" filter="url(#brightness1)" d="M0,1 1.7,2 1.7,2.13953488372093 0,1.1395348837209303 z"/>
                                <path fill="#9be9a8" filter="url(#brightness2)" d="M1.7,2 3.4,1 3.4,1.1395348837209303 1.7,2.13953488372093 z"/>
                            </g>
                            <g transform="translate(-3.4, 8)">
                                <path fill="#ebedf0" d="M1.7,2 0,1 1.7,0 3.4,1 z"/>
                                <path fill="#ebedf0" filter="url(#brightness1)" d="M0,1 1.7,2 1.7,2 0,1 z"/>
                                <path fill="#ebedf0" filter="url(#brightness2)" d="M1.7,2 3.4,1 3.4,1 1.7,2 z"/>
                            </g>
                            <g transform="translate(-5.1, 9)">
                                <path fill="#ebedf0" d="M1.7,2 0,1 1.7,0 3.4,1 z"/>
                                <path fill="#ebedf0" filter="url(#brightness1)" d="M0,1 1.7,2 1.7,2 0,1 z"/>
                                <path fill="#ebedf0" filter="url(#brightness2)" d="M1.7,2 3.4,1 3.4,1 1.7,2 z"/>
                            </g>
                            <g transform="translate(-6.8, 9.44186046511628)">
                                <path fill="#9be9a8" d="M1.7,2 0,1 1.7,0 3.4,1 z"/>
                                <path fill="#9be9a8" filter="url(#brightness1)" d="M0,1 1.7,2 1.7,2.558139534883721 0,1.558139534883721 z"/>
                                <path fill="#9be9a8" filter="url(#brightness2)" d="M1.7,2 3.4,1 3.4,1.558139534883721 1.7,2.558139534883721 z"/>
                            </g>
                            <g transform="translate(-8.5, 10.86046511627907)">
                                <path fill="#9be9a8" d="M1.7,2 0,1 1.7,0 3.4,1 z"/>
                                <path fill="#9be9a8" filter="url(#brightness1)" d="M0,1 1.7,2 1.7,2.13953488372093 0,1.1395348837209303 z"/>
                                <path fill="#9be9a8" filter="url(#brightness2)" d="M1.7,2 3.4,1 3.4,1.1395348837209303 1.7,2.13953488372093 z"/>
                            </g>
                            <g transform="translate(-10.2, 12)">
                                <path fill="#ebedf0" d="M1.7,2 0,1 1.7,0 3.4,1 z"/>
                                <path fill="#ebedf0" filter="url(#brightness1)" d="M0,1 1.7,2 1.7,2 0,1 z"/>
                                <path fill="#ebedf0" filter="url(#brightness2)" d="M1.7,2 3.4,1 3.4,1 1.7,2 z"/>
                            </g>
                        </g>
                        <g transform="translate(30.599999999999998, 18)">
                            <g transform="translate(0, 5.8604651162790695)">
                                <path fill="#9be9a8" d="M1.7,2 0,1 1.7,0 3.4,1 z"/>
                                <path fill="#9be9a8" filter="url(#brightness1)" d="M0,1 1.7,2 1.7,2.13953488372093 0,1.1395348837209303 z"/>
                                <path fill="#9be9a8" filter="url(#brightness2)" d="M1.7,2 3.4,1 3.4,1.1395348837209303 1.7,2.13953488372093 z"/>
                            </g>
                            <g transform="translate(-1.7, 6.44186046511628)">
                                <path fill="#9be9a8" d="M1.7,2 0,1 1.7,0 3.4,1 z"/>
                                <path fill="#9be9a8" filter="url(#brightness1)" d="M0,1 1.7,2 1.7,2.558139534883721 0,1.558139534883721 z"/>
                                <path fill="#9be9a8" filter="url(#brightness2)" d="M1.7,2 3.4,1 3.4,1.558139534883721 1.7,2.558139534883721 z"/>
                            </g>
                            <g transform="translate(-3.4, 8)">
                                <path fill="#ebedf0" d="M1.7,2 0,1 1.7,0 3.4,1 z"/>
                                <path fill="#ebedf0" filter="url(#brightness1)" d="M0,1 1.7,2 1.7,2 0,1 z"/>
                                <path fill="#ebedf0" filter="url(#brightness2)" d="M1.7,2 3.4,1 3.4,1 1.7,2 z"/>
                            </g>
                            <g transform="translate(-5.1, 9)">
                                <path fill="#ebedf0" d="M1.7,2 0,1 1.7,0 3.4,1 z"/>
                                <path fill="#ebedf0" filter="url(#brightness1)" d="M0,1 1.7,2 1.7,2 0,1 z"/>
                                <path fill="#ebedf0" filter="url(#brightness2)" d="M1.7,2 3.4,1 3.4,1 1.7,2 z"/>
                            </g>
                            <g transform="translate(-6.8, 7.069767441860465)">
                                <path fill="#216e39" d="M1.7,2 0,1 1.7,0 3.4,1 z"/>
                                <path fill="#216e39" filter="url(#brightness1)" d="M0,1 1.7,2 1.7,4.930232558139535 0,3.9302325581395348 z"/>
                                <path fill="#216e39" filter="url(#brightness2)" d="M1.7,2 3.4,1 3.4,3.9302325581395348 1.7,4.930232558139535 z"/>
                            </g>
                            <g transform="translate(-8.5, 10.44186046511628)">
                                <path fill="#9be9a8" d="M1.7,2 0,1 1.7,0 3.4,1 z"/>
                                <path fill="#9be9a8" filter="url(#brightness1)" d="M0,1 1.7,2 1.7,2.558139534883721 0,1.558139534883721 z"/>
                                <path fill="#9be9a8" filter="url(#brightness2)" d="M1.7,2 3.4,1 3.4,1.558139534883721 1.7,2.558139534883721 z"/>
                            </g>
                            <g transform="translate(-10.2, 12)">
                                <path fill="#ebedf0" d="M1.7,2 0,1 1.7,0 3.4,1 z"/>
                                <path fill="#ebedf0" filter="url(#brightness1)" d="M0,1 1.7,2 1.7,2 0,1 z"/>
                                <path fill="#ebedf0" filter="url(#brightness2)" d="M1.7,2 3.4,1 3.4,1 1.7,2 z"/>
                            </g>
                        </g>
                        <g transform="translate(32.3, 19)">
                            <g transform="translate(0, 3.7674418604651163)">
                                <path fill="#216e39" d="M1.7,2 0,1 1.7,0 3.4,1 z"/>
                                <path fill="#216e39" filter="url(#brightness1)" d="M0,1 1.7,2 1.7,4.232558139534884 0,3.2325581395348837 z"/>
                                <path fill="#216e39" filter="url(#brightness2)" d="M1.7,2 3.4,1 3.4,3.2325581395348837 1.7,4.232558139534884 z"/>
                            </g>
                            <g transform="translate(-1.7, 6.44186046511628)">
                                <path fill="#9be9a8" d="M1.7,2 0,1 1.7,0 3.4,1 z"/>
                                <path fill="#9be9a8" filter="url(#brightness1)" d="M0,1 1.7,2 1.7,2.558139534883721 0,1.558139534883721 z"/>
                                <path fill="#9be9a8" filter="url(#brightness2)" d="M1.7,2 3.4,1 3.4,1.558139534883721 1.7,2.558139534883721 z"/>
                            </g>
                            <g transform="translate(-3.4, 6.325581395348837)">
                                <path fill="#30a14e" d="M1.7,2 0,1 1.7,0 3.4,1 z"/>
                                <path fill="#30a14e" filter="url(#brightness1)" d="M0,1 1.7,2 1.7,3.6744186046511627 0,2.6744186046511627 z"/>
                                <path fill="#30a14e" filter="url(#brightness2)" d="M1.7,2 3.4,1 3.4,2.6744186046511627 1.7,3.6744186046511627 z"/>
                            </g>
                            <g transform="translate(-5.1, 8.720930232558139)">
                                <path fill="#9be9a8" d="M1.7,2 0,1 1.7,0 3.4,1 z"/>
                                <path fill="#9be9a8" filter="url(#brightness1)" d="M0,1 1.7,2 1.7,2.2790697674418605 0,1.2790697674418605 z"/>
                                <path fill="#9be9a8" filter="url(#brightness2)" d="M1.7,2 3.4,1 3.4,1.2790697674418605 1.7,2.2790697674418605 z"/>
                            </g>
                            <g transform="translate(-6.8, 10)">
                                <path fill="#ebedf0" d="M1.7,2 0,1 1.7,0 3.4,1 z"/>
                                <path fill="#ebedf0" filter="url(#brightness1)" d="M0,1 1.7,2 1.7,2 0,1 z"/>
                                <path fill="#ebedf0" filter="url(#brightness2)" d="M1.7,2 3.4,1 3.4,1 1.7,2 z"/>
                            </g>
                            <g transform="translate(-8.5, 11)">
                                <path fill="#ebedf0" d="M1.7,2 0,1 1.7,0 3.4,1 z"/>
                                <path fill="#ebedf0" filter="url(#brightness1)" d="M0,1 1.7,2 1.7,2 0,1 z"/>
                                <path fill="#ebedf0" filter="url(#brightness2)" d="M1.7,2 3.4,1 3.4,1 1.7,2 z"/>
                            </g>
                            <g transform="translate(-10.2, 12)">
                                <path fill="#ebedf0" d="M1.7,2 0,1 1.7,0 3.4,1 z"/>
                                <path fill="#ebedf0" filter="url(#brightness1)" d="M0,1 1.7,2 1.7,2 0,1 z"/>
                                <path fill="#ebedf0" filter="url(#brightness2)" d="M1.7,2 3.4,1 3.4,1 1.7,2 z"/>
                            </g>
                        </g>
                        <g transform="translate(34, 20)">
                            <g transform="translate(0, 4.7441860465116275)">
                                <path fill="#40c463" d="M1.7,2 0,1 1.7,0 3.4,1 z"/>
                                <path fill="#40c463" filter="url(#brightness1)" d="M0,1 1.7,2 1.7,3.255813953488372 0,2.255813953488372 z"/>
                                <path fill="#40c463" filter="url(#brightness2)" d="M1.7,2 3.4,1 3.4,2.255813953488372 1.7,3.255813953488372 z"/>
                            </g>
                            <g transform="translate(-1.7, 6.44186046511628)">
                                <path fill="#9be9a8" d="M1.7,2 0,1 1.7,0 3.4,1 z"/>
                                <path fill="#9be9a8" filter="url(#brightness1)" d="M0,1 1.7,2 1.7,2.558139534883721 0,1.558139534883721 z"/>
                                <path fill="#9be9a8" filter="url(#brightness2)" d="M1.7,2 3.4,1 3.4,1.558139534883721 1.7,2.558139534883721 z"/>
                            </g>
                            <g transform="translate(-3.4, 8)">
                                <path fill="#ebedf0" d="M1.7,2 0,1 1.7,0 3.4,1 z"/>
                                <path fill="#ebedf0" filter="url(#brightness1)" d="M0,1 1.7,2 1.7,2 0,1 z"/>
                                <path fill="#ebedf0" filter="url(#brightness2)" d="M1.7,2 3.4,1 3.4,1 1.7,2 z"/>
                            </g>
                            <g transform="translate(-5.1, 5.232558139534884)">
                                <path fill="#216e39" d="M1.7,2 0,1 1.7,0 3.4,1 z"/>
                                <path fill="#216e39" filter="url(#brightness1)" d="M0,1 1.7,2 1.7,5.767441860465116 0,4.767441860465116 z"/>
                                <path fill="#216e39" filter="url(#brightness2)" d="M1.7,2 3.4,1 3.4,4.767441860465116 1.7,5.767441860465116 z"/>
                            </g>
                            <g transform="translate(-6.8, 10)">
                                <path fill="#ebedf0" d="M1.7,2 0,1 1.7,0 3.4,1 z"/>
                                <path fill="#ebedf0" filter="url(#brightness1)" d="M0,1 1.7,2 1.7,2 0,1 z"/>
                                <path fill="#ebedf0" filter="url(#brightness2)" d="M1.7,2 3.4,1 3.4,1 1.7,2 z"/>
                            </g>
                            <g transform="translate(-8.5, 9.883720930232558)">
                                <path fill="#40c463" d="M1.7,2 0,1 1.7,0 3.4,1 z"/>
                                <path fill="#40c463" filter="url(#brightness1)" d="M0,1 1.7,2 1.7,3.116279069767442 0,2.116279069767442 z"/>
                                <path fill="#40c463" filter="url(#brightness2)" d="M1.7,2 3.4,1 3.4,2.116279069767442 1.7,3.116279069767442 z"/>
                            </g>
                            <g transform="translate(-10.2, 11.30232558139535)">
                                <path fill="#9be9a8" d="M1.7,2 0,1 1.7,0 3.4,1 z"/>
                                <path fill="#9be9a8" filter="url(#brightness1)" d="M0,1 1.7,2 1.7,2.697674418604651 0,1.697674418604651 z"/>
                                <path fill="#9be9a8" filter="url(#brightness2)" d="M1.7,2 3.4,1 3.4,1.697674418604651 1.7,2.697674418604651 z"/>
                            </g>
                        </g>
                        <g transform="translate(35.699999999999996, 21)">
                            <g transform="translate(0, 6)">
                                <path fill="#ebedf0" d="M1.7,2 0,1 1.7,0 3.4,1 z"/>
                                <path fill="#ebedf0" filter="url(#brightness1)" d="M0,1 1.7,2 1.7,2 0,1 z"/>
                                <path fill="#ebedf0" filter="url(#brightness2)" d="M1.7,2 3.4,1 3.4,1 1.7,2 z"/>
                            </g>
                            <g transform="translate(-1.7, 7)">
                                <path fill="#ebedf0" d="M1.7,2 0,1 1.7,0 3.4,1 z"/>
                                <path fill="#ebedf0" filter="url(#brightness1)" d="M0,1 1.7,2 1.7,2 0,1 z"/>
                                <path fill="#ebedf0" filter="url(#brightness2)" d="M1.7,2 3.4,1 3.4,1 1.7,2 z"/>
                            </g>
                            <g transform="translate(-3.4, 7.44186046511628)">
                                <path fill="#9be9a8" d="M1.7,2 0,1 1.7,0 3.4,1 z"/>
                                <path fill="#9be9a8" filter="url(#brightness1)" d="M0,1 1.7,2 1.7,2.558139534883721 0,1.558139534883721 z"/>
                                <path fill="#9be9a8" filter="url(#brightness2)" d="M1.7,2 3.4,1 3.4,1.558139534883721 1.7,2.558139534883721 z"/>
                            </g>
                            <g transform="translate(-5.1, 8.581395348837209)">
                                <path fill="#9be9a8" d="M1.7,2 0,1 1.7,0 3.4,1 z"/>
                                <path fill="#9be9a8" filter="url(#brightness1)" d="M0,1 1.7,2 1.7,2.4186046511627906 0,1.4186046511627906 z"/>
                                <path fill="#9be9a8" filter="url(#brightness2)" d="M1.7,2 3.4,1 3.4,1.4186046511627906 1.7,2.4186046511627906 z"/>
                            </g>
                            <g transform="translate(-6.8, 9.86046511627907)">
                                <path fill="#9be9a8" d="M1.7,2 0,1 1.7,0 3.4,1 z"/>
                                <path fill="#9be9a8" filter="url(#brightness1)" d="M0,1 1.7,2 1.7,2.13953488372093 0,1.1395348837209303 z"/>
                                <path fill="#9be9a8" filter="url(#brightness2)" d="M1.7,2 3.4,1 3.4,1.1395348837209303 1.7,2.13953488372093 z"/>
                            </g>
                            <g transform="translate(-8.5, 11)">
                                <path fill="#ebedf0" d="M1.7,2 0,1 1.7,0 3.4,1 z"/>
                                <path fill="#ebedf0" filter="url(#brightness1)" d="M0,1 1.7,2 1.7,2 0,1 z"/>
                                <path fill="#ebedf0" filter="url(#brightness2)" d="M1.7,2 3.4,1 3.4,1 1.7,2 z"/>
                            </g>
                            <g transform="translate(-10.2, 12)">
                                <path fill="#ebedf0" d="M1.7,2 0,1 1.7,0 3.4,1 z"/>
                                <path fill="#ebedf0" filter="url(#brightness1)" d="M0,1 1.7,2 1.7,2 0,1 z"/>
                                <path fill="#ebedf0" filter="url(#brightness2)" d="M1.7,2 3.4,1 3.4,1 1.7,2 z"/>
                            </g>
                        </g>
                        <g transform="translate(37.4, 22)">
                            <g transform="translate(0, 5.5813953488372094)">
                                <path fill="#9be9a8" d="M1.7,2 0,1 1.7,0 3.4,1 z"/>
                                <path fill="#9be9a8" filter="url(#brightness1)" d="M0,1 1.7,2 1.7,2.4186046511627906 0,1.4186046511627906 z"/>
                                <path fill="#9be9a8" filter="url(#brightness2)" d="M1.7,2 3.4,1 3.4,1.4186046511627906 1.7,2.4186046511627906 z"/>
                            </g>
                            <g transform="translate(-1.7, 4.348837209302325)">
                                <path fill="#30a14e" d="M1.7,2 0,1 1.7,0 3.4,1 z"/>
                                <path fill="#30a14e" filter="url(#brightness1)" d="M0,1 1.7,2 1.7,4.651162790697675 0,3.6511627906976747 z"/>
                                <path fill="#30a14e" filter="url(#brightness2)" d="M1.7,2 3.4,1 3.4,3.6511627906976747 1.7,4.651162790697675 z"/>
                            </g>
                            <g transform="translate(-3.4, 6.325581395348837)">
                                <path fill="#40c463" d="M1.7,2 0,1 1.7,0 3.4,1 z"/>
                                <path fill="#40c463" filter="url(#brightness1)" d="M0,1 1.7,2 1.7,3.6744186046511627 0,2.6744186046511627 z"/>
                                <path fill="#40c463" filter="url(#brightness2)" d="M1.7,2 3.4,1 3.4,2.6744186046511627 1.7,3.6744186046511627 z"/>
                            </g>
                            <g transform="translate(-5.1, 8.30232558139535)">
                                <path fill="#9be9a8" d="M1.7,2 0,1 1.7,0 3.4,1 z"/>
                                <path fill="#9be9a8" filter="url(#brightness1)" d="M0,1 1.7,2 1.7,2.697674418604651 0,1.697674418604651 z"/>
                                <path fill="#9be9a8" filter="url(#brightness2)" d="M1.7,2 3.4,1 3.4,1.697674418604651 1.7,2.697674418604651 z"/>
                            </g>
                            <g transform="translate(-6.8, 8.883720930232558)">
                                <path fill="#40c463" d="M1.7,2 0,1 1.7,0 3.4,1 z"/>
                                <path fill="#40c463" filter="url(#brightness1)" d="M0,1 1.7,2 1.7,3.116279069767442 0,2.116279069767442 z"/>
                                <path fill="#40c463" filter="url(#brightness2)" d="M1.7,2 3.4,1 3.4,2.116279069767442 1.7,3.116279069767442 z"/>
                            </g>
                            <g transform="translate(-8.5, 10.86046511627907)">
                                <path fill="#9be9a8" d="M1.7,2 0,1 1.7,0 3.4,1 z"/>
                                <path fill="#9be9a8" filter="url(#brightness1)" d="M0,1 1.7,2 1.7,2.13953488372093 0,1.1395348837209303 z"/>
                                <path fill="#9be9a8" filter="url(#brightness2)" d="M1.7,2 3.4,1 3.4,1.1395348837209303 1.7,2.13953488372093 z"/>
                            </g>
                            <g transform="translate(-10.2, 11.30232558139535)">
                                <path fill="#9be9a8" d="M1.7,2 0,1 1.7,0 3.4,1 z"/>
                                <path fill="#9be9a8" filter="url(#brightness1)" d="M0,1 1.7,2 1.7,2.697674418604651 0,1.697674418604651 z"/>
                                <path fill="#9be9a8" filter="url(#brightness2)" d="M1.7,2 3.4,1 3.4,1.697674418604651 1.7,2.697674418604651 z"/>
                            </g>
                        </g>
                        <g transform="translate(39.1, 23)">
                            <g transform="translate(0, 6)">
                                <path fill="#ebedf0" d="M1.7,2 0,1 1.7,0 3.4,1 z"/>
                                <path fill="#ebedf0" filter="url(#brightness1)" d="M0,1 1.7,2 1.7,2 0,1 z"/>
                                <path fill="#ebedf0" filter="url(#brightness2)" d="M1.7,2 3.4,1 3.4,1 1.7,2 z"/>
                            </g>
                            <g transform="translate(-1.7, 5.325581395348837)">
                                <path fill="#40c463" d="M1.7,2 0,1 1.7,0 3.4,1 z"/>
                                <path fill="#40c463" filter="url(#brightness1)" d="M0,1 1.7,2 1.7,3.6744186046511627 0,2.6744186046511627 z"/>
                                <path fill="#40c463" filter="url(#brightness2)" d="M1.7,2 3.4,1 3.4,2.6744186046511627 1.7,3.6744186046511627 z"/>
                            </g>
                            <g transform="translate(-3.4, 8)">
                                <path fill="#ebedf0" d="M1.7,2 0,1 1.7,0 3.4,1 z"/>
                                <path fill="#ebedf0" filter="url(#brightness1)" d="M0,1 1.7,2 1.7,2 0,1 z"/>
                                <path fill="#ebedf0" filter="url(#brightness2)" d="M1.7,2 3.4,1 3.4,1 1.7,2 z"/>
                            </g>
                            <g transform="translate(-5.1, 8.023255813953488)">
                                <path fill="#40c463" d="M1.7,2 0,1 1.7,0 3.4,1 z"/>
                                <path fill="#40c463" filter="url(#brightness1)" d="M0,1 1.7,2 1.7,2.9767441860465116 0,1.9767441860465116 z"/>
                                <path fill="#40c463" filter="url(#brightness2)" d="M1.7,2 3.4,1 3.4,1.9767441860465116 1.7,2.9767441860465116 z"/>
                            </g>
                            <g transform="translate(-6.8, 9.86046511627907)">
                                <path fill="#9be9a8" d="M1.7,2 0,1 1.7,0 3.4,1 z"/>
                                <path fill="#9be9a8" filter="url(#brightness1)" d="M0,1 1.7,2 1.7,2.13953488372093 0,1.1395348837209303 z"/>
                                <path fill="#9be9a8" filter="url(#brightness2)" d="M1.7,2 3.4,1 3.4,1.1395348837209303 1.7,2.13953488372093 z"/>
                            </g>
                            <g transform="translate(-8.5, 10.44186046511628)">
                                <path fill="#9be9a8" d="M1.7,2 0,1 1.7,0 3.4,1 z"/>
                                <path fill="#9be9a8" filter="url(#brightness1)" d="M0,1 1.7,2 1.7,2.558139534883721 0,1.558139534883721 z"/>
                                <path fill="#9be9a8" filter="url(#brightness2)" d="M1.7,2 3.4,1 3.4,1.558139534883721 1.7,2.558139534883721 z"/>
                            </g>
                            <g transform="translate(-10.2, 12)">
                                <path fill="#ebedf0" d="M1.7,2 0,1 1.7,0 3.4,1 z"/>
                                <path fill="#ebedf0" filter="url(#brightness1)" d="M0,1 1.7,2 1.7,2 0,1 z"/>
                                <path fill="#ebedf0" filter="url(#brightness2)" d="M1.7,2 3.4,1 3.4,1 1.7,2 z"/>
                            </g>
                        </g>
                        <g transform="translate(40.8, 24)">
                            <g transform="translate(0, 6)">
                                <path fill="#ebedf0" d="M1.7,2 0,1 1.7,0 3.4,1 z"/>
                                <path fill="#ebedf0" filter="url(#brightness1)" d="M0,1 1.7,2 1.7,2 0,1 z"/>
                                <path fill="#ebedf0" filter="url(#brightness2)" d="M1.7,2 3.4,1 3.4,1 1.7,2 z"/>
                            </g>
                            <g transform="translate(-1.7, 5.604651162790698)">
                                <path fill="#216e39" d="M1.7,2 0,1 1.7,0 3.4,1 z"/>
                                <path fill="#216e39" filter="url(#brightness1)" d="M0,1 1.7,2 1.7,3.395348837209302 0,2.395348837209302 z"/>
                                <path fill="#216e39" filter="url(#brightness2)" d="M1.7,2 3.4,1 3.4,2.395348837209302 1.7,3.395348837209302 z"/>
                            </g>
                            <g transform="translate(-3.4, 7.8604651162790695)">
                                <path fill="#9be9a8" d="M1.7,2 0,1 1.7,0 3.4,1 z"/>
                                <path fill="#9be9a8" filter="url(#brightness1)" d="M0,1 1.7,2 1.7,2.13953488372093 0,1.1395348837209303 z"/>
                                <path fill="#9be9a8" filter="url(#brightness2)" d="M1.7,2 3.4,1 3.4,1.1395348837209303 1.7,2.13953488372093 z"/>
                            </g>
                            <g transform="translate(-5.1, 8.86046511627907)">
                                <path fill="#9be9a8" d="M1.7,2 0,1 1.7,0 3.4,1 z"/>
                                <path fill="#9be9a8" filter="url(#brightness1)" d="M0,1 1.7,2 1.7,2.13953488372093 0,1.1395348837209303 z"/>
                                <path fill="#9be9a8" filter="url(#brightness2)" d="M1.7,2 3.4,1 3.4,1.1395348837209303 1.7,2.13953488372093 z"/>
                            </g>
                            <g transform="translate(-6.8, 9.44186046511628)">
                                <path fill="#40c463" d="M1.7,2 0,1 1.7,0 3.4,1 z"/>
                                <path fill="#40c463" filter="url(#brightness1)" d="M0,1 1.7,2 1.7,2.558139534883721 0,1.558139534883721 z"/>
                                <path fill="#40c463" filter="url(#brightness2)" d="M1.7,2 3.4,1 3.4,1.558139534883721 1.7,2.558139534883721 z"/>
                            </g>
                            <g transform="translate(-8.5, 10.30232558139535)">
                                <path fill="#40c463" d="M1.7,2 0,1 1.7,0 3.4,1 z"/>
                                <path fill="#40c463" filter="url(#brightness1)" d="M0,1 1.7,2 1.7,2.697674418604651 0,1.697674418604651 z"/>
                                <path fill="#40c463" filter="url(#brightness2)" d="M1.7,2 3.4,1 3.4,1.697674418604651 1.7,2.697674418604651 z"/>
                            </g>
                            <g transform="translate(-10.2, 12)">
                                <path fill="#ebedf0" d="M1.7,2 0,1 1.7,0 3.4,1 z"/>
                                <path fill="#ebedf0" filter="url(#brightness1)" d="M0,1 1.7,2 1.7,2 0,1 z"/>
                                <path fill="#ebedf0" filter="url(#brightness2)" d="M1.7,2 3.4,1 3.4,1 1.7,2 z"/>
                            </g>
                        </g>
                        <g transform="translate(42.5, 25)">
                            <g transform="translate(0, 6)">
                                <path fill="#ebedf0" d="M1.7,2 0,1 1.7,0 3.4,1 z"/>
                                <path fill="#ebedf0" filter="url(#brightness1)" d="M0,1 1.7,2 1.7,2 0,1 z"/>
                                <path fill="#ebedf0" filter="url(#brightness2)" d="M1.7,2 3.4,1 3.4,1 1.7,2 z"/>
                            </g>
                            <g transform="translate(-1.7, 6.8604651162790695)">
                                <path fill="#9be9a8" d="M1.7,2 0,1 1.7,0 3.4,1 z"/>
                                <path fill="#9be9a8" filter="url(#brightness1)" d="M0,1 1.7,2 1.7,2.13953488372093 0,1.1395348837209303 z"/>
                                <path fill="#9be9a8" filter="url(#brightness2)" d="M1.7,2 3.4,1 3.4,1.1395348837209303 1.7,2.13953488372093 z"/>
                            </g>
                            <g transform="translate(-3.4, 7.162790697674419)">
                                <path fill="#30a14e" d="M1.7,2 0,1 1.7,0 3.4,1 z"/>
                                <path fill="#30a14e" filter="url(#brightness1)" d="M0,1 1.7,2 1.7,2.837209302325581 0,1.8372093023255813 z"/>
                                <path fill="#30a14e" filter="url(#brightness2)" d="M1.7,2 3.4,1 3.4,1.8372093023255813 1.7,2.837209302325581 z"/>
                            </g>
                            <g transform="translate(-5.1, 8.720930232558139)">
                                <path fill="#9be9a8" d="M1.7,2 0,1 1.7,0 3.4,1 z"/>
                                <path fill="#9be9a8" filter="url(#brightness1)" d="M0,1 1.7,2 1.7,2.2790697674418605 0,1.2790697674418605 z"/>
                                <path fill="#9be9a8" filter="url(#brightness2)" d="M1.7,2 3.4,1 3.4,1.2790697674418605 1.7,2.2790697674418605 z"/>
                            </g>
                            <g transform="translate(-6.8, 9.720930232558139)">
                                <path fill="#9be9a8" d="M1.7,2 0,1 1.7,0 3.4,1 z"/>
                                <path fill="#9be9a8" filter="url(#brightness1)" d="M0,1 1.7,2 1.7,2.2790697674418605 0,1.2790697674418605 z"/>
                                <path fill="#9be9a8" filter="url(#brightness2)" d="M1.7,2 3.4,1 3.4,1.2790697674418605 1.7,2.2790697674418605 z"/>
                            </g>
                            <g transform="translate(-8.5, 10.720930232558139)">
                                <path fill="#9be9a8" d="M1.7,2 0,1 1.7,0 3.4,1 z"/>
                                <path fill="#9be9a8" filter="url(#brightness1)" d="M0,1 1.7,2 1.7,2.2790697674418605 0,1.2790697674418605 z"/>
                                <path fill="#9be9a8" filter="url(#brightness2)" d="M1.7,2 3.4,1 3.4,1.2790697674418605 1.7,2.2790697674418605 z"/>
                            </g>
                            <g transform="translate(-10.2, 12)">
                                <path fill="#ebedf0" d="M1.7,2 0,1 1.7,0 3.4,1 z"/>
                                <path fill="#ebedf0" filter="url(#brightness1)" d="M0,1 1.7,2 1.7,2 0,1 z"/>
                                <path fill="#ebedf0" filter="url(#brightness2)" d="M1.7,2 3.4,1 3.4,1 1.7,2 z"/>
                            </g>
                        </g>
                        <g transform="translate(44.199999999999996, 26)">
                            <g transform="translate(0, 6)">
                                <path fill="#ebedf0" d="M1.7,2 0,1 1.7,0 3.4,1 z"/>
                                <path fill="#ebedf0" filter="url(#brightness1)" d="M0,1 1.7,2 1.7,2 0,1 z"/>
                                <path fill="#ebedf0" filter="url(#brightness2)" d="M1.7,2 3.4,1 3.4,1 1.7,2 z"/>
                            </g>
                            <g transform="translate(-1.7, 7)">
                                <path fill="#ebedf0" d="M1.7,2 0,1 1.7,0 3.4,1 z"/>
                                <path fill="#ebedf0" filter="url(#brightness1)" d="M0,1 1.7,2 1.7,2 0,1 z"/>
                                <path fill="#ebedf0" filter="url(#brightness2)" d="M1.7,2 3.4,1 3.4,1 1.7,2 z"/>
                            </g>
                            <g transform="translate(-3.4, 8)">
                                <path fill="#ebedf0" d="M1.7,2 0,1 1.7,0 3.4,1 z"/>
                                <path fill="#ebedf0" filter="url(#brightness1)" d="M0,1 1.7,2 1.7,2 0,1 z"/>
                                <path fill="#ebedf0" filter="url(#brightness2)" d="M1.7,2 3.4,1 3.4,1 1.7,2 z"/>
                            </g>
                        </g>
                    </g>
                </svg>
            </section>
        </div>
        <div xmlns="http://www.w3.org/1999/xhtml" id="metrics-end"></div>
    </foreignObject>
</svg>